plotly
…
      Home

  Academic and Professional Experiences

  Dashboard

plotly

2025-10-25

data("instacart")
instacart

## # A tibble: 1,384,617 × 15
##    order_id product_id add_to_cart_order reordered user_id eval_set order_number
##       <int>      <int>             <int>     <int>   <int> <chr>           <int>
##  1        1      49302                 1         1  112108 train               4
##  2        1      11109                 2         1  112108 train               4
##  3        1      10246                 3         0  112108 train               4
##  4        1      49683                 4         0  112108 train               4
##  5        1      43633                 5         1  112108 train               4
##  6        1      13176                 6         0  112108 train               4
##  7        1      47209                 7         0  112108 train               4
##  8        1      22035                 8         1  112108 train               4
##  9       36      39612                 1         0   79431 train              23
## 10       36      19660                 2         1   79431 train              23
## # ℹ 1,384,607 more rows
## # ℹ 8 more variables: order_dow <int>, order_hour_of_day <int>,
## #   days_since_prior_order <int>, product_name <chr>, aisle_id <int>,
## #   department_id <int>, aisle <chr>, department <chr>
…
instart_department = instacart |> 
  group_by(department) |> 
  summarise(
    reorder_rate = mean(reordered, na.rm = TRUE),
    .groups = "drop"
  ) |> 
  arrange(desc(reorder_rate))

instart_department 

## # A tibble: 21 × 2
##    department   reorder_rate
##    <chr>               <dbl>
##  1 dairy eggs          0.675
##  2 produce             0.665
##  3 beverages           0.658
##  4 bakery              0.634
##  5 pets                0.630
##  6 deli                0.618
##  7 alcohol             0.607
##  8 meat seafood        0.591
##  9 snacks              0.581
## 10 bulk                0.578
## # ℹ 11 more rows
…
